{
  "type": "service_account",
  "project_id": "journeytothewest-c4985",
  "private_key_id": "f5592ec1e37df2f017fcfcd8de8c9cf990ca778b",
  "private_key": "-----BEGIN PRIVATE KEY-----\nMIIEvQIBADANBgkqhkiG9w0BAQEFAASCBKcwggSjAgEAAoIBAQCYYaYkN1sQQQgv\n0u+hY+zNhB4C2qQYuTCEVmS29FU2s8KrrhHDfQHD0yei97Ln5mB2xqhli5e6Usuf\nz/uutofkZZ0VJ6Ed9SwfzMYOfXGpETDARFGl5Tz6aMgsP9kITcAy4Du2cXLRysTO\nP0P9eA6G79z0BAt7ipvoi3yvCFsX7s8FVghEHOi0dvrusjTYqVbnRQBX5qNrAaT6\nbFQfSM/Ltht3kwwGUfwJV/bmldASarjCv2Z2hfBLA+3ANsX88EddsjPz+RSdDZoe\nGRjXaGHHOtDb/hpRUQi19M2zE5Mbjajmf18m3DMjN/bkqjr0HRrGsm0jdvQ/+AKm\nBDqZ4C0tAgMBAAECggEAFEe0DGWKSun/dG9JhtGyjjw99ZmdYFBOmuDtS4TOIyxz\nxVSH4bFtPt+HNW3A6Oh6Fc9k/GAX2UDeqnjMNsRCkWJNWyeTOQD3Fo5dckfot3G7\nFW5M7YbKVvYDZLw59Bx2RBnKvgJwSmfcSdTABZJpCzVjfd2x8jG62TgDPT+f8VnE\nWbe2HiV1ydH9A9rtXVSf0loV0QeqfUEXkV8hkqPn+cEUHrB8hjqsPs6m2o542I0J\n2kkFkqvCGt4sKLz34h9dunR93UHE2ft6HMXV7LbmJ+ljnQ6i32G6mCaCgI2t+UYe\nmGvW65JxSxDQUyFYOEHJ3WgqSERu0DePHnSrJr/GgwKBgQDG09TJVv+j79/fUYEY\nKYyeRhWW8SHM9BOedszYhxF6luin+ZlSZ41sN3t1p0/tuRPX2OThL7mDzMRoG2lh\nMv2u7+VpJEXnsEcrx/ehBzfE/+dIv6A39SaSTYT987c31yH440smAUJM9wMoEEPI\nPrW/SqUnfWPGDcKl/3aZIjzllwKBgQDEMtBk7zXqSWmp12VFbz2tZ1zP4Bb4PVO4\nax1GmqSgNi9xBg+Vvh4/dqwe6DW3BGXDGTqfi2QGluJ3KXK8eIgkAC3dUv7Xwc0d\ngLIEsveDys7SmBxlQMJhpqHfxWHPXVOjfkrJ5DjYiMPNSlmaEw5ab9iWVdMHFQms\nccSIWIED2wKBgAttq6JzDLiolg6pCamQ4dNLJfyKGa5FLUeDfpzHjrqkJ/VXxHdX\nGmro+YC2wEJizAAxKF7FNn2b7IIraTA8FRbUFTSo8Be0KzMaCGLKHmuFZg7pbNUq\nky//orBSLOrZw8shjXU+x0fTPuwzmyHMcPfw23NcorqEmfaeq3t721I7AoGAS3QP\nWQH2Big9jqfbtpxVZ/68XuWbb9SGAgKPu7t1XHf6PslJ7Ri0oUuOXkSHg98ZE7L8\nLKd6zF3yskkqavkfwlifSuLER02tCI+Z5ty8+95fM/Zz1SzWlJ902Y4bU5hcth+3\nu3Udt4jBZI4Xb32so3MoJIjVI4AfvEX0g0smMskCgYEAi9gp4mMTXz/8uv3cEw57\ngHWiPhaYr/8spj5a+DCKI1Q3DjrwlNmyC3JeTZrtCfDdDtNW3dVpujIg5uTDms8F\nZjmNUbVP9mRnJG5eQCm25Lz8SbQPsmG2olLev1QfwZ0ULs96kd0OJCk2AhEZrkS/\ns0xvhhyXsZeC3IRoxEGVCbk=\n-----END PRIVATE KEY-----\n",
  "client_email": "firebase-adminsdk-3ub9z@journeytothewest-c4985.iam.gserviceaccount.com",
  "client_id": "113174262851384632134",
  "auth_uri": "https://accounts.google.com/o/oauth2/auth",
  "token_uri": "https://oauth2.googleapis.com/token",
  "auth_provider_x509_cert_url": "https://www.googleapis.com/oauth2/v1/certs",
  "client_x509_cert_url": "https://www.googleapis.com/robot/v1/metadata/x509/firebase-adminsdk-3ub9z%40journeytothewest-c4985.iam.gserviceaccount.com"
}
